<svg id="actividades" xmlns="http://www.w3.org/2000/svg" width="24" height="24" viewBox="0 0 24 24">
  <path id="Trazado_1262" data-name="Trazado 1262" d="M0,0H24V24H0Z" fill="none"/>
  <path id="Sustracción_7" data-name="Sustracción 7" d="M18,16H2a2,2,0,0,1-2-2H4V13H0V10A2,2,0,0,0,2,8,2,2,0,0,0,.011,6V2A2,2,0,0,1,2,0H18a2,2,0,0,1,2,2H16V3h4V6a2,2,0,1,0,0,4v4A2,2,0,0,1,18,16ZM10,1.8,8.451,5.741l-4.24.249L7.5,8.68,6.421,12.8,10,10.5h0l3.58,2.3-1.09-4.11L15.781,6l-4.24-.251Z" transform="translate(2.457 3.999)" fill="currentColor"/>
</svg>
